[
  {
    "id": 1,
    "name": "Bulbasaur",
    "types": {
      "type1": "Grass",
      "type2": "Poison"
    },
    "description": "A strange seed was planted on its back at birth. The plant sprouts and grows with this Pokémon.",


  },
  {
    "id": 2,
    "name": "Ivysaur",
    "types": {
      "type1": "Grass",
      "type2": "Poison"
    },
    "description": "When the bulb on its back grows large, it appears to lose the ability to stand on its hind legs.",


  },
  {
    "id": 3,
    "name": "Venusaur",
    "types": {
      "type1": "Grass",
      "type2": "Poison"
    },
    "description": "The plant blooms when it is absorbing solar energy. It stays on the move to seek sunlight.",


  },
  {
    "id": 4,
    "name": "Charmander",
    "types": {
      "type1": "Fire",
      "type2": ""
    },
    "description": "Obviously prefers hot places. When it rains, steam is said to spout from the tip of its tail.",


  },
  {
    "id": 5,
    "name": "Charmeleon",
    "types": {
      "type1": "Fire",
      "type2": ""
    },
    "description": "When it swings its burning tail, it elevates the temperature to unbearably high levels.",


  },
  {
    "id": 6,
    "name": "Charizard",
    "types": {
      "type1": "Fire",
      "type2": "Flying"
    },
    "description": "Spits fire that is hot enough to melt boulders. Known to cause forest fires unintentionally.",


  },
  {
    "id": 7,
    "name": "Squirtle",
    "types": {
      "type1": "Water",
      "type2": ""
    },
    "description": "After birth, its back swells and hardens into a shell. Powerfully sprays foam from its mouth.",


  },
  {
    "id": 8,
    "name": "Wartortle",
    "types": {
      "type1": "Water",
      "type2": ""
    },
    "description": "Often hides in water to stalk unwary prey. For swimming fast, it moves its ears to maintain balance.",


  },
  {
    "id": 9,
    "name": "Blastoise",
    "types": {
      "type1": "Water",
      "type2": ""
    },
    "description": "A brutal Pokémon with pressurized water jets on its shell. They are used for high speed tackles.",


  },
  {
    "id": 10,
    "name": "Caterpie",
    "types": {
      "type1": "Bug",
      "type2": ""
    },
    "description": "Its short feet are tipped with suction pads that enable it to tirelessly climb slopes and walls.",
    "moveset" : [
      {
        "move": "Tackle",
        "description": "A NORMAL-type attack. Many Pokémon know this attack right from the start.",
        "type": "Normal",
        "level": 0,
        "pp": 35,
        "power": 35,
        "accuracy": 95
      },
      {
        "move": "String Shot",
        "description": "Strings are sprayed out and wrapped around the target to reduce its SPEED.",
        "type": "Bug",
        "level": 0,
        "pp": 40,
        "accuracy": 95
      }
    ]
  },
  {
    "id": 11,
    "name": "Metapod",
    "types": {
      "type1": "Bug",
      "type2": ""
    },
    "description": "This Pokémon is vulnerable to attack while its shell is soft, exposing its weak and tender body.",
    "moveset" : [
      {
        "move": "Harden",
        "description": "Raises the user's DEFENSE. Useful when battling physically strong Pokémon.",
        "type": "Normal",
        "level": 0,
        "pp": 30,
        "accuracy": 100
      }
    ]
  },
  {
    "id": 12,
    "name": "Butterfree",
    "types": {
      "type1": "Bug",
      "type2": "Flying"
    },
    "description": "In battle, it flaps its wings at high speed to release highly toxic dust into the air.",
    "moveset" : [
      {
        "move": "Confusion",
        "description": "A PSYCHIC-type attack. Has a one-in-ten chance of leaving the target confused.",
        "type": "Psychic",
        "level": 12,
        "pp": 25,
        "power": 50,
        "accuracy": 100
      },
      {
        "move": "Poison Powder",
        "description": "A technique that poisons the target. If poisoned, the victim loses HP steadily.",
        "type": "Poison",
        "level": 15,
        "pp": 35,
        "accuracy": 74.6
      },
      {
        "move": "Stun Spore",
        "description": "A special move that causes paralysis. When paralyzed, the victim has a one-in-four chance of immobility.",
        "type": "Grass",
        "level": 16,
        "pp": 35,
        "accuracy": 75
      },
      {
        "move": "Sleep Powder",
        "description": "Induces sleep. A Pokémon will stay asleep for several turns if an item isn't used to wake it.",
        "type": "Grass",
        "level": 17,
        "pp": 15,
        "accuracy": 75
      },
      {
        "move": "Supersonic",
        "description": "A special NORMAL-type technique. Supersonic sound waves are used to confuse the target.",
        "type": "Normal",
        "level": 21,
        "pp": 20,
        "accuracy": 55
      },
      {
        "move": "Whirlwind",
        "description": "A special NORMAL-type technique. Supersonic sound waves are used to confuse the target.",
        "type": "Normal",
        "level": 21,
        "pp": 20,
        "accuracy": 55
      },
      {
        "move": "Psybeam",
        "description": "A PSYCHIC-type attack. Has a one-in-ten chance of making the target confused.",
        "type": "Psychic",
        "level": 32,
        "pp": 20,
        "power": 65,
        "accuracy": 100
      }
    ]
  },
  {
    "id": 13,
    "name": "Weedle",
    "types": {
      "type1": "Bug",
      "type2": "Poison"
    },
    "description": "Often found in forests, eating leaves. It has a sharp venomous stinger on its head.",
    "moveset" : [
      {
        "move": "Poison Sting",
        "description": "A POISON-type attack. Has a one-in- five chance of leaving the target with the lingering effects of poison.",
        "type": "Poison",
        "level": 0,
        "pp": 35,
        "power": 15,
        "accuracy": 100
      },
      {
        "move": "String Shot",
        "description": "Strings are sprayed out and wrapped around the target to reduce its SPEED.",
        "type": "Bug",
        "level": 0,
        "pp": 40,
        "accuracy": 95
      }
    ]
  },
  {
    "id": 14,
    "name": "Kakuna",
    "types": {
      "type1": "Bug",
      "type2": "Poison"
    },
    "description": "Almost incapable of moving, this POKéMON can only harden its shell to protect itself from predators.",
    "moveset" : [
      {
        "move": "Harden",
        "description": "Raises the user's DEFENSE. Useful when battling physically strong Pokémon.",
        "type": "Normal",
        "level": 0,
        "pp": 30,
        "accuracy": 100
      }
    ]
  },
  {
    "id": 15,
    "name": "Beedrill",
    "types": {
      "type1": "Bug",
      "type2": "Poison"
    },
    "description": "Flies at high speed and attacks using its large venomous stingers on its forelegs and tail.",
    "moveset" : [
      {
        "move": "Fury Attack",
        "description": "A NORMAL-type attack. The Pokémon rapidly jabs at its opponent several times.",
        "type": "Normal",
        "level": 12,
        "pp": 20,
        "power": 15,
        "accuracy": 85
      },
      {
        "move": "Focus Energy",
        "description": "Raises the likelihood of nailing the opponent's weak spot for a critical hit.",
        "type": "Normal",
        "level": 16,
        "pp": 30,
        "accuracy": 100
      },
      {
        "move": "Twineedle",
        "description": "An attack that strikes twice. The target may occasionally become poisoned.",
        "type": "Bug",
        "level": 20,
        "pp": 20,
        "power": 25,
        "accuracy": 100
      },
      {
        "move": "Rage",
        "description": "A non-stop attack move. The user's ATTACK power increases every time it sustains damage.",
        "type": "Normal",
        "level": 25,
        "pp": 20,
        "power": 20,
        "accuracy": 100
      },
      {
        "move": "Pin Missile",
        "description": "An attack that fires many needle-like projectiles from the body. Strikes several times.",
        "type": "Bug",
        "level": 30,
        "pp": 20,
        "power": 14,
        "accuracy": 85
      },
      {
        "move": "Agility",
        "description": "A special technique that greatly boosts the user's SPEED. Can normally be used up to three times.",
        "type": "Psychic",
        "level": 35,
        "pp": 30,
        "accuracy": 100
      }
    ]
  },
  {
    "id": 16,
    "name": "Pidgey",
    "types": {
      "type1": "Normal",
      "type2": "Flying"
    },
    "description": "A common sight in forests and woods. It flaps its wings at ground level to kick up blinding sand.",
    "moveset" : [
      {
        "move": "Gust",
        "description": "A NORMAL-type attack used by bird Pokémon. A powerful wind is generated by flapping wings.",
        "type": "Normal",
        "level": 0,
        "pp": 35,
        "power": 40,
        "accuracy": 100
      },
      {
        "move": "Sand-Attack",
        "description": "An attack in which sand is used to blind the target and reduce its attack accuracy.",
        "type": "Normal",
        "level": 5,
        "pp": 15,
        "accuracy": 100
      },
      {
        "move": "Quick Attack",
        "description": "An attack that always strikes first. If both Pokémon use this, the one with higher SPEED attacks first.",
        "type": "Normal",
        "level": 12,
        "pp": 30,
        "power": 40,
        "accuracy": 100
      },
      {
        "move": "Whirlwind",
        "description": "A special NORMAL-type technique. Supersonic sound waves are used to confuse the target.",
        "type": "Normal",
        "level": 19,
        "pp": 20,
        "accuracy": 55
      },
      {
        "move": "Wing Attack",
        "description": "A FLYING-type attack. The attacking Pokémon spreads its wings and charges at the target.",
        "type": "Flying",
        "level": 29,
        "pp": 35,
        "power": 40,
        "accuracy": 100
      },
      {
        "move": "Agility",
        "description": "A special technique that greatly boosts the user's SPEED. Can normally be used up to three times.",
        "type": "Psychic",
        "level": 36,
        "pp": 30,
        "accuracy": 100
      },
      {
        "move": "Mirror Move",
        "description": "A move that strikes back with the opponent's last move. This move comes after the enemy's move.",
        "type": "Flying",
        "level": 44,
        "pp": 20,
        "accuracy": 100
      }
    ]
  },
  {
    "id": 17,
    "name": "Pidgeotto",
    "types": {
      "type1": "Normal",
      "type2": "Flying"
    },
    "description": "Very protective of its sprawling territorial area, this POKéMON will fiercely peck at any intruder.",
    "moveset" : [
      {
        "move": "Gust",
        "description": "A NORMAL-type attack used by bird Pokémon. A powerful wind is generated by flapping wings.",
        "type": "Normal",
        "level": 0,
        "pp": 35,
        "power": 40,
        "accuracy": 100
      },
      {
        "move": "Sand-Attack",
        "description": "An attack in which sand is used to blind the target and reduce its attack accuracy.",
        "type": "Normal",
        "level": 5,
        "pp": 15,
        "accuracy": 100
      },
      {
        "move": "Quick Attack",
        "description": "An attack that always strikes first. If both Pokémon use this, the one with higher SPEED attacks first.",
        "type": "Normal",
        "level": 12,
        "pp": 30,
        "power": 40,
        "accuracy": 100
      },
      {
        "move": "Whirlwind",
        "description": "A special NORMAL-type technique. Supersonic sound waves are used to confuse the target.",
        "type": "Normal",
        "level": 21,
        "pp": 20,
        "accuracy": 55
      },
      {
        "move": "Wing Attack",
        "description": "A FLYING-type attack. The attacking Pokémon spreads its wings and charges at the target.",
        "type": "Flying",
        "level": 31,
        "pp": 35,
        "power": 40,
        "accuracy": 100
      },
      {
        "move": "Agility",
        "description": "A special technique that greatly boosts the user's SPEED. Can normally be used up to three times.",
        "type": "Psychic",
        "level": 40,
        "pp": 30,
        "accuracy": 100
      },
      {
        "move": "Mirror Move",
        "description": "A move that strikes back with the opponent's last move. This move comes after the enemy's move.",
        "type": "Flying",
        "level": 49,
        "pp": 20,
        "accuracy": 100
      }
    ]
  },
  {
    "id": 18,
    "name": "Pidgeot",
    "types": {
      "type1": "Normal",
      "type2": "Flying"
    },
    "description": "When hunting, it skims the surface of water at high speed to pick off unwary prey such as Magikarp.",
    "moveset" : [
      {
        "move": "Gust",
        "description": "A NORMAL-type attack used by bird Pokémon. A powerful wind is generated by flapping wings.",
        "type": "Normal",
        "level": 0,
        "pp": 35,
        "power": 40,
        "accuracy": 100
      },
      {
        "move": "Sand-Attack",
        "description": "An attack in which sand is used to blind the target and reduce its attack accuracy.",
        "type": "Normal",
        "level": 5,
        "pp": 15,
        "accuracy": 100
      },
      {
        "move": "Quick Attack",
        "description": "An attack that always strikes first. If both Pokémon use this, the one with higher SPEED attacks first.",
        "type": "Normal",
        "level": 12,
        "pp": 30,
        "power": 40,
        "accuracy": 100
      },
      {
        "move": "Whirlwind",
        "description": "A special NORMAL-type technique. Supersonic sound waves are used to confuse the target.",
        "type": "Normal",
        "level": 21,
        "pp": 20,
        "accuracy": 55
      },
      {
        "move": "Wing Attack",
        "description": "A FLYING-type attack. The attacking Pokémon spreads its wings and charges at the target.",
        "type": "Flying",
        "level": 31,
        "pp": 35,
        "power": 40,
        "accuracy": 100
      },
      {
        "move": "Agility",
        "description": "A special technique that greatly boosts the user's SPEED. Can normally be used up to three times.",
        "type": "Psychic",
        "level": 44,
        "pp": 30,
        "accuracy": 100
      },
      {
        "move": "Mirror Move",
        "description": "A move that strikes back with the opponent's last move. This move comes after the enemy's move.",
        "type": "Flying",
        "level": 54,
        "pp": 20,
        "accuracy": 100
      }
    ]
  },
  {
    "id": 19,
    "name": "Rattata",
    "types": {
      "type1": "Normal",
      "type2": ""
    },
    "description": "Bites anything when it attacks. Small and very quick, it is a common sight in many places.",
    "moveset" : [
      {
        "move": "Tackle",
        "description": "A NORMAL-type attack. Many Pokémon know this attack right from the start.",
        "type": "Normal",
        "level": 0,
        "pp": 35,
        "power": 35,
        "accuracy": 95
      },
      {
        "move": "Tail Whip",
        "description": "A technique that lowers the target's DEFENSE. Useful against tough, armored Pokémon.",
        "type": "Normal",
        "level": 0,
        "pp": 30,
        "accuracy": 100
      },
      {
        "move": "Quick Attack",
        "description": "An attack that always strikes first. If both Pokémon use this, the one with higher SPEED attacks first.",
        "type": "Normal",
        "level": 7,
        "pp": 30,
        "power": 40,
        "accuracy": 100
      },
      {
        "move": "Hyper Fang",
        "description": "A NORMAL-type attack. Has a one-in-ten chance of making the target flinch.",
        "type": "Normal",
        "level": 14,
        "pp": 15,
        "power": 80,
        "accuracy": 90
      },
      {
        "move": "Focus Energy",
        "description": "Raises the likelihood of nailing the opponent's weak spot for a critical hit.",
        "type": "Normal",
        "level": 23,
        "pp": 30,
        "accuracy": 100
      },
      {
        "move": "Super Fang",
        "description": "If it hits, this attack cuts the target's HP in half. Learned by Pokémon with developed fangs.",
        "type": "Normal",
        "level": 34,
        "pp": 10,
        "accuracy": 90
      }
    ]
  },
  {
    "id": 20,
    "name": "Raticate",
    "classification": "Mouse Pokémon",
    "types": {
      "type1": "Normal",
      "type2": ""
    },
    "description": "It uses its whiskers to maintain its balance. It apparently slows down if they are cut off.",
    "moveset" : [
      {
        "move": "Tackle",
        "description": "A NORMAL-type attack. Many Pokémon know this attack right from the start.",
        "type": "Normal",
        "level": 0,
        "pp": 35,
        "power": 35,
        "accuracy": 95
      },
      {
        "move": "Tail Whip",
        "description": "A technique that lowers the target's DEFENSE. Useful against tough, armored Pokémon.",
        "type": "Normal",
        "level": 0,
        "pp": 30,
        "accuracy": 100
      },
      {
        "move": "Quick Attack",
        "description": "An attack that always strikes first. If both Pokémon use this, the one with higher SPEED attacks first.",
        "type": "Normal",
        "level": 7,
        "pp": 30,
        "power": 40,
        "accuracy": 100
      },
      {
        "move": "Hyper Fang",
        "description": "A NORMAL-type attack. Has a one-in-ten chance of making the target flinch.",
        "type": "Normal",
        "level": 14,
        "pp": 15,
        "power": 80,
        "accuracy": 90
      },
      {
        "move": "Focus Energy",
        "description": "Raises the likelihood of nailing the opponent's weak spot for a critical hit.",
        "type": "Normal",
        "level": 27,
        "pp": 30,
        "accuracy": 100
      },
      {
        "move": "Super Fang",
        "description": "If it hits, this attack cuts the target's HP in half. Learned by Pokémon with developed fangs.",
        "type": "Normal",
        "level": 41,
        "pp": 10,
        "accuracy": 90
      }
    ]
  },
  {
    "id": 21,
    "name": "Spearow",
    "classification": "Tiny Bird Pokémon",
    "types": {
      "type1": "Normal",
      "type2": "Flying"
    },
    "description": "Eats bugs in grassy areas. It has to flap its short wings at high speed to stay airborne.",
    "moveset" : [
      {
        "move": "Peck",
        "description": "A FLYING-type attack. The attacking Pokémon spreads its wings and charges at the target.",
        "type": "Flying",
        "level": 0,
        "pp": 35,
        "power": 35,
        "accuracy": 100
      },
      {
        "move": "Growl",
        "description": "A technique that lowers the target's ATTACK power. Can normally be used up to six times.",
        "type": "Normal",
        "level": 0,
        "pp": 40,
        "accuracy": 100
      },
      {
        "move": "Leer",
        "description": "A technique that lowers the target's DEFENSE. Useful against tough, armored Pokémon.",
        "type": "Normal",
        "level": 9,
        "pp": 30,
        "accuracy": 100
      },
      {
        "move": "Fury Attack",
        "description": "A NORMAL-type attack. The Pokémon rapidly jabs at its opponent several times.",
        "type": "Normal",
        "level": 15,
        "pp": 20,
        "power": 15,
        "accuracy": 85
      },
      {
        "move": "Mirror Move",
        "description": "A move that strikes back with the opponent's last move. This move comes after the enemy's move.",
        "type": "Flying",
        "level": 22,
        "pp": 20,
        "accuracy": 100
      },
      {
        "move": "Drill Peck",
        "description": "A standard FLYING-type attack. It is strong and highly likely to hit the target.",
        "type": "Flying",
        "level": 29,
        "pp": 20,
        "power": 80,
        "accuracy": 100
      },
      {
        "move": "Agility",
        "description": "A special technique that greatly boosts the user's SPEED. Can normally be used up to three times.",
        "type": "Psychic",
        "level": 36,
        "pp": 30,
        "accuracy": 100
      }
    ]
  },
  {
    "id": 22,
    "name": "Fearow",
    "classification": "Beak Pokémon",
    "types": {
      "type1": "Normal",
      "type2": "Flying"
    },
    "description": "With its huge and magnificent wings, it can keep aloft without ever having to land for rest.",
    "moveset" : [
      {
        "move": "Peck",
        "description": "A FLYING-type attack. The attacking Pokémon spreads its wings and charges at the target.",
        "type": "Flying",
        "level": 0,
        "pp": 35,
        "power": 35,
        "accuracy": 100
      },
      {
        "move": "Growl",
        "description": "A technique that lowers the target's ATTACK power. Can normally be used up to six times.",
        "type": "Normal",
        "level": 0,
        "pp": 40,
        "accuracy": 100
      },
      {
        "move": "Leer",
        "description": "A technique that lowers the target's DEFENSE. Useful against tough, armored Pokémon.",
        "type": "Normal",
        "level": 9,
        "pp": 30,
        "accuracy": 100
      },
      {
        "move": "Fury Attack",
        "description": "A NORMAL-type attack. The Pokémon rapidly jabs at its opponent several times.",
        "type": "Normal",
        "level": 15,
        "pp": 20,
        "power": 15,
        "accuracy": 85
      },
      {
        "move": "Mirror Move",
        "description": "A move that strikes back with the opponent's last move. This move comes after the enemy's move.",
        "type": "Flying",
        "level": 25,
        "pp": 20,
        "accuracy": 100
      },
      {
        "move": "Drill Peck",
        "description": "A standard FLYING-type attack. It is strong and highly likely to hit the target.",
        "type": "Flying",
        "level": 34,
        "pp": 20,
        "power": 80,
        "accuracy": 100
      },
      {
        "move": "Agility",
        "description": "A special technique that greatly boosts the user's SPEED. Can normally be used up to three times.",
        "type": "Psychic",
        "level": 43,
        "pp": 30,
        "accuracy": 100
      }
    ]
  },
  {
    "id": 23,
    "name": "Ekans",
    "types": {
      "type1": "Poison",
      "type2": ""
    },
    "description": "Moves silently and stealthily. Eats the eggs of birds, such as Pidgey and Spearow, whole.",
    "moveset" : [
      {
        "move": "Wrap",
        "description": "Traps and squeezes the target over two to five turns. The target cannot move while under attack.",
        "type": "Normal",
        "level": 0,
        "pp": 20,
        "power": 15,
        "accuracy": 85
      },
      {
        "move": "Leer",
        "description": "A technique that lowers the target's DEFENSE. Useful against tough, armored Pokémon.",
        "type": "Normal",
        "level": 9,
        "pp": 30,
        "accuracy": 100
      },
      {
        "move": "Poison Sting",
        "description": "A POISON-type attack. Has a one-in- five chance of leaving the target with the lingering effects of poison.",
        "type": "Poison",
        "level": 10,
        "pp": 35,
        "power": 15,
        "accuracy": 100
      },
      {
        "move": "Bite",
        "description": "A bite made using sharp fangs. This may cause the opponent to flinch, and it might not attack.",
        "type": "Normal",
        "level": 17,
        "pp": 25,
        "power": 60,
        "accuracy": 100
      },
      {
        "move": "Glare",
        "description": "The target is transfixed with terrifying sharp eyes. The target is frightened into paralysis.",
        "type": "Normal",
        "level": 24,
        "pp": 30,
        "accuracy": 75
      },
      {
        "move": "Screech",
        "description": "A move that makes a horrible noise. It sharply reduces the target's DEFENSE.",
        "type": "Normal",
        "level": 31,
        "pp": 40,
        "accuracy": 85
      },
      {
        "move": "Acid",
        "description": "A POISON-type attack. Has a one-in-three chance of lowering the target's DEFENSE.",
        "type": "Poison",
        "level": 38,
        "pp": 30,
        "power": 40,
        "accuracy": 100
      }
    ]
  },
  {
    "id": 24,
    "name": "Arbok",
    "types": {
      "type1": "Poison",
      "type2": ""
    },
    "description": "The frightening patterns on its belly have been studied. Six variations have been confirmed.",
    "moveset" : [
      {
        "move": "Wrap",
        "description": "Traps and squeezes the target over two to five turns. The target cannot move while under attack.",
        "type": "Normal",
        "level": 0,
        "pp": 20,
        "power": 15,
        "accuracy": 85
      },
      {
        "move": "Leer",
        "description": "A technique that lowers the target's DEFENSE. Useful against tough, armored Pokémon.",
        "type": "Normal",
        "level": 9,
        "pp": 30,
        "accuracy": 100
      },
      {
        "move": "Poison Sting",
        "description": "A POISON-type attack. Has a one-in- five chance of leaving the target with the lingering effects of poison.",
        "type": "Poison",
        "level": 10,
        "pp": 35,
        "power": 15,
        "accuracy": 100
      },
      {
        "move": "Bite",
        "description": "A bite made using sharp fangs. This may cause the opponent to flinch, and it might not attack.",
        "type": "Normal",
        "level": 17,
        "pp": 25,
        "power": 60,
        "accuracy": 100
      },
      {
        "move": "Glare",
        "description": "The target is transfixed with terrifying sharp eyes. The target is frightened into paralysis.",
        "type": "Normal",
        "level": 27,
        "pp": 30,
        "accuracy": 75
      },
      {
        "move": "Screech",
        "description": "A move that makes a horrible noise. It sharply reduces the target's DEFENSE.",
        "type": "Normal",
        "level": 36,
        "pp": 40,
        "accuracy": 85
      },
      {
        "move": "Acid",
        "description": "A POISON-type attack. Has a one-in-three chance of lowering the target's DEFENSE.",
        "type": "Poison",
        "level": 47,
        "pp": 30,
        "power": 40,
        "accuracy": 100
      }
    ]
  },
  {
    "id": 25,
    "name": "Pikachu",
    "types": {
      "type1": "Electric",
      "type2": ""
    },
    "description": "When several of these Pokémon gather, their electricity could build and cause lightning storms.",
    "moveset" : [
      {
        "move": "Thunder Shock",
        "description": "An ELECTRIC-type attack. Has a one-in-ten chance of paralyzing the target.",
        "type": "Electric",
        "level": 0,
        "pp": 30,
        "power": 40,
        "accuracy": 100
      },
      {
        "move": "Growl",
        "description": "A technique that lowers the target's ATTACK power. Can normally be used up to six times.",
        "type": "Normal",
        "level": 0,
        "pp": 40,
        "accuracy": 100
      },
      {
        "move": "Thunder Wave",
        "description": "A special move that causes paralysis. When paralyzed, the victim has a one-in-four chance of immobility.",
        "type": "Electric",
        "level": 9,
        "pp": 20,
        "accuracy": 100
      },
      {
        "move": "Quick Attack",
        "description": "An attack that always strikes first. If both Pokémon use this, the one with higher SPEED attacks first.",
        "type": "Normal",
        "level": 16,
        "pp": 30,
        "power": 40,
        "accuracy": 100
      },
      {
        "move": "Swift",
        "description": "A NORMAL-type attack. It is highly accurate, so it can be counted on to inflict damage.",
        "type": "Normal",
        "level": 26,
        "pp": 30,
        "power": 60,
        "accuracy": 100
      },
      {
        "move": "Agility",
        "description": "A special technique that greatly boosts the user's SPEED. Can normally be used up to three times.",
        "type": "Psychic",
        "level": 33,
        "pp": 30,
        "accuracy": 100
      },
      {
        "move": "Thunder",
        "description": "The strongest of all ELECTRIC-type attacks. Has a one-in-ten chance of paralyzing the target.",
        "type": "Electric",
        "level": 43,
        "pp": 10,
        "power": 120,
        "accuracy": 70
      }
    ]
  },
  {
    "id": 26,
    "name": "Raichu",
    "types": {
      "type1": "Electric",
      "type2": ""
    },
    "description": "Its long tail serves as a ground to protect itself from its own high voltage power.",
    "moveset" : [
      {
        "move": "Thunder Shock",
        "description": "An ELECTRIC-type attack. Has a one-in-ten chance of paralyzing the target.",
        "type": "Electric",
        "level": 0,
        "pp": 30,
        "power": 40,
        "accuracy": 100
      },
      {
        "move": "Growl",
        "description": "A technique that lowers the target's ATTACK power. Can normally be used up to six times.",
        "type": "Normal",
        "level": 0,
        "pp": 40,
        "accuracy": 100
      },
      {
        "move": "Thunder Wave",
        "description": "A special move that causes paralysis. When paralyzed, the victim has a one-in-four chance of immobility.",
        "type": "Electric",
        "level": 0,
        "pp": 20,
        "accuracy": 100
      }
    ]
  },
  {
    "id": 27,
    "name": "Sandshrew",
    "types": {
      "type1": "Ground",
      "type2": ""
    },
    "description": "Burrows deep underground in arid locations far from water. It only emerges to hunt for food.",
    "moveset" : [
      {
        "move": "Scratch",
        "description": "A NORMAL-type attack. Sharp claws are used to inflict damage on the target.",
        "type": "Normal",
        "level": 0,
        "pp": 35,
        "power": 40,
        "accuracy": 100
      },
      {
        "move": "Sand-Attack",
        "description": "An attack in which sand is used to blind the target and reduce its attack accuracy.",
        "type": "Normal",
        "level": 10,
        "pp": 15,
        "accuracy": 100
      },
      {
        "move": "Slash",
        "description": "A NORMAL-type attack. It has a high probability of a critical hit for inflicting double the damage.",
        "type": "Normal",
        "level": 17,
        "pp": 15,
        "power": 70,
        "accuracy": 100
      },
      {
        "move": "Poison Sting",
        "description": "A POISON-type attack. Has a one-in- five chance of leaving the target with the lingering effects of poison.",
        "type": "Poison",
        "level": 24,
        "pp": 35,
        "power": 15,
        "accuracy": 100
      },
      {
        "move": "Swift",
        "description": "A NORMAL-type attack. It is highly accurate, so it can be counted on to inflict damage.",
        "type": "Normal",
        "level": 31,
        "pp": 30,
        "power": 60,
        "accuracy": 100
      },
      {
        "move": "Fury Swipes",
        "description": "The target is scratched by sharp claws two to five times in quick succession.",
        "type": "Normal",
        "level": 38,
        "pp": 15,
        "power": 18,
        "accuracy": 80
      }
    ]
  },
  {
    "id": 28,
    "name": "Sandslash",
    "types": {
      "type1": "Ground",
      "type2": ""
    },
    "description": "Curls up into a spiny ball when threatened. It can roll while curled up to attack or escape.",
    "moveset" : [
      {
        "move": "Scratch",
        "description": "A NORMAL-type attack. Sharp claws are used to inflict damage on the target.",
        "type": "Normal",
        "level": 0,
        "pp": 35,
        "power": 40,
        "accuracy": 100
      },
      {
        "move": "Sand-Attack",
        "description": "An attack in which sand is used to blind the target and reduce its attack accuracy.",
        "type": "Normal",
        "level": 10,
        "pp": 15,
        "accuracy": 100
      },
      {
        "move": "Slash",
        "description": "A NORMAL-type attack. It has a high probability of a critical hit for inflicting double the damage.",
        "type": "Normal",
        "level": 17,
        "pp": 15,
        "power": 70,
        "accuracy": 100
      },
      {
        "move": "Poison Sting",
        "description": "A POISON-type attack. Has a one-in- five chance of leaving the target with the lingering effects of poison.",
        "type": "Poison",
        "level": 27,
        "pp": 35,
        "power": 15,
        "accuracy": 100
      },
      {
        "move": "Swift",
        "description": "A NORMAL-type attack. It is highly accurate, so it can be counted on to inflict damage.",
        "type": "Normal",
        "level": 36,
        "pp": 30,
        "power": 60,
        "accuracy": 100
      },
      {
        "move": "Fury Swipes",
        "description": "The target is scratched by sharp claws two to five times in quick succession.",
        "type": "Normal",
        "level": 47,
        "pp": 15,
        "power": 18,
        "accuracy": 80
      }
    ]
  },
  {
    "id": 29,
    "name": "Nidoran♀",
    "types": {
      "type1": "Poison",
      "type2": ""
    },
    "description": "Although small, its venomous barbs render this Pokémon dangerous. The female has smaller horns.",
    "moveset" : [
      {
        "move": "Growl",
        "description": "A technique that lowers the target's ATTACK power. Can normally be used up to six times.",
        "type": "Normal",
        "level": 0,
        "pp": 40,
        "accuracy": 100
      },
      {
        "move": "Tackle",
        "description": "A NORMAL-type attack. Many Pokémon know this attack right from the start.",
        "type": "Normal",
        "level": 0,
        "pp": 35,
        "power": 35,
        "accuracy": 95
      },
      {
        "move": "Scratch",
        "description": "A NORMAL-type attack. Sharp claws are used to inflict damage on the target.",
        "type": "Normal",
        "level": 8,
        "pp": 35,
        "power": 40,
        "accuracy": 100
      },
      {
        "move": "Poison Sting",
        "description": "A POISON-type attack. Has a one-in- five chance of leaving the target with the lingering effects of poison.",
        "type": "Poison",
        "level": 14,
        "pp": 35,
        "power": 15,
        "accuracy": 100
      },
      {
        "move": "Tail Whip",
        "description": "A technique that lowers the target's DEFENSE. Useful against tough, armored Pokémon.",
        "type": "Normal",
        "level": 21,
        "pp": 30,
        "accuracy": 100
      },
      {
        "move": "Bite",
        "description": "A bite made using sharp fangs. This may cause the opponent to flinch, and it might not attack.",
        "type": "Normal",
        "level": 29,
        "pp": 25,
        "power": 60,
        "accuracy": 100
      },
      {
        "move": "Fury Swipes",
        "description": "The target is scratched by sharp claws two to five times in quick succession.",
        "type": "Normal",
        "level": 36,
        "pp": 15,
        "power": 18,
        "accuracy": 80
      },
      {
        "move": "Double Kick",
        "description": "A FIGHTING-type attack. As the name implies, it is actually two quick kicks in succession.",
        "type": "Fighting",
        "level": 43,
        "pp": 30,
        "power": 30,
        "accuracy": 100
      }
    ]
  },
  {
    "id": 30,
    "name": "Nidorina",
    "types": {
      "type1": "Poison",
      "type2": ""
    },
    "description": "The female's horn develops slowly. Prefers physical attacks such as clawing and biting.",
    "moveset" : [
      {
        "move": "Growl",
        "description": "A technique that lowers the target's ATTACK power. Can normally be used up to six times.",
        "type": "Normal",
        "level": 0,
        "pp": 40,
        "accuracy": 100
      },
      {
        "move": "Tackle",
        "description": "A NORMAL-type attack. Many Pokémon know this attack right from the start.",
        "type": "Normal",
        "level": 0,
        "pp": 35,
        "power": 35,
        "accuracy": 95
      },
      {
        "move": "Scratch",
        "description": "A NORMAL-type attack. Sharp claws are used to inflict damage on the target.",
        "type": "Normal",
        "level": 8,
        "pp": 35,
        "power": 40,
        "accuracy": 100
      },
      {
        "move": "Poison Sting",
        "description": "A POISON-type attack. Has a one-in- five chance of leaving the target with the lingering effects of poison.",
        "type": "Poison",
        "level": 14,
        "pp": 35,
        "power": 15,
        "accuracy": 100
      },
      {
        "move": "Tail Whip",
        "description": "A technique that lowers the target's DEFENSE. Useful against tough, armored Pokémon.",
        "type": "Normal",
        "level": 23,
        "pp": 30,
        "accuracy": 100
      },
      {
        "move": "Bite",
        "description": "A bite made using sharp fangs. This may cause the opponent to flinch, and it might not attack.",
        "type": "Normal",
        "level": 32,
        "pp": 25,
        "power": 60,
        "accuracy": 100
      },
      {
        "move": "Fury Swipes",
        "description": "The target is scratched by sharp claws two to five times in quick succession.",
        "type": "Normal",
        "level": 41,
        "pp": 15,
        "power": 18,
        "accuracy": 80
      },
      {
        "move": "Double Kick",
        "description": "A FIGHTING-type attack. As the name implies, it is actually two quick kicks in succession.",
        "type": "Fighting",
        "level": 50,
        "pp": 30,
        "power": 30,
        "accuracy": 100
      }
    ]
  },
  {
    "id": 31,
    "name": "Nidoqueen",
    "types": {
      "type1": "Poison",
      "type2": "Ground"
    },
    "description": "Its hard scales provide strong protection. It uses its hefty bulk to execute powerful moves.",
    "moveset" : [
      {
        "move": "Growl",
        "description": "A technique that lowers the target's ATTACK power. Can normally be used up to six times.",
        "type": "Normal",
        "level": 0,
        "pp": 40,
        "accuracy": 100
      },
      {
        "move": "Tackle",
        "description": "A NORMAL-type attack. Many Pokémon know this attack right from the start.",
        "type": "Normal",
        "level": 0,
        "pp": 35,
        "power": 35,
        "accuracy": 95
      },
      {
        "move": "Scratch",
        "description": "A NORMAL-type attack. Sharp claws are used to inflict damage on the target.",
        "type": "Normal",
        "level": 8,
        "pp": 35,
        "power": 40,
        "accuracy": 100
      },
      {
        "move": "Poison Sting",
        "description": "A POISON-type attack. Has a one-in- five chance of leaving the target with the lingering effects of poison.",
        "type": "Poison",
        "level": 14,
        "pp": 35,
        "power": 15,
        "accuracy": 100
      },
      {
        "move": "Body Slam",
        "description": "A NORMAL-type attack. Has a one-in-three chance of paralyzing the target if it connects.",
        "type": "Normal",
        "level": 23,
        "pp": 15,
        "power": 85,
        "accuracy": 100
      }
    ]
  },
  {
    "id": 32,
    "name": "Nidoran♂",
    "types": {
      "type1": "Poison",
      "type2": ""
    },
    "description": "Stiffens its ears to sense danger. The larger its horns, the more powerful its secreted venom.",


  },
  {
    "id": 33,
    "name": "Nidorino",
    "types": {
      "type1": "Poison",
      "type2": ""
    },
    "description": "An aggressive POKéMON that is quick to attack. The horn on its head secretes a powerful venom.",


  },
  {
    "id": 34,
    "name": "Nidoking",
    "types": {
      "type1": "Poison",
      "type2": "Ground"
    },
    "description": "It uses its powerful tail in battle to smash, constrict, then break the prey's bones.",


  },
  {
    "id": 35,
    "name": "Clefairy",
    "types": {
      "type1": "Normal",
      "type2": ""
    },
    "description": "Its magical and cute appeal has many admirers. It is rare and found only in certain areas.",


  },
  {
    "id": 36,
    "name": "Clefable",
    "types": {
      "type1": "Normal",
      "type2": ""
    },
    "description": "A timid fairy Pokémon that is rarely seen. It will run and hide the moment it senses people.",


  },
  {
    "id": 37,
    "name": "Vulpix",
    "types": {
      "type1": "Fire",
      "type2": ""
    },
    "description": "At the time of birth, it has just one tail. The tail splits from its tip as it grows older.",


  },
  {
    "id": 38,
    "name": "Ninetails",
    "types": {
      "type1": "Fire",
      "type2": ""
    },
    "description": "Very smart and very vengeful. Grabbing one of its many tails could result in a 1000-year curse.",


  },
  {
    "id": 39,
    "name": "Jigglypuff",
    "types": {
      "type1": "Normal",
      "type2": ""
    },
    "description": "When its huge eyes light up, it sings a mysteriously soothing melody that lulls its enemies to sleep.",


  },
  {
    "id": 40,
    "name": "Wigglytuff",
    "types": {
      "type1": "Normal",
      "type2": ""
    },
    "description": "The body is soft and rubbery. When angered, it will suck in air and inflate itself to an enormous size.",


  },
  {
    "id": 41,
    "name": "Zubat",
    "types": {
      "type1": "Poison",
      "type2": "Flying"
    },
    "description": "Forms colonies in perpetually dark places. Uses ultrasonic waves to identify and approach targets.",


  },
  {
    "id": 42,
    "name": "Golbat",
    "types": {
      "type1": "Poison",
      "type2": "Flying"
    },
    "description": "Once it strikes, it will not stop draining energy from the victim even if it gets too heavy to fly.",


  },
  {
    "id": 43,
    "name": "Oddish",
    "types": {
      "type1": "Grass",
      "type2": "Poison"
    },
    "description": "During the day, it keeps its face buried in the ground. At night, it wanders around sowing its seeds.",


  },
  {
    "id": 44,
    "name": "Gloom",
    "types": {
      "type1": "Grass",
      "type2": "Poison"
    },
    "description": "The fluid that oozes from its mouth isn't drool. It is a nectar that is used to attract prey.",


  },
  {
    "id": 45,
    "name": "Vileplume",
    "types": {
      "type1": "Grass",
      "type2": "Poison"
    },
    "description": "The larger its petals, the more toxic pollen it contains. Its big head is heavy and hard to hold up.",


  },
  {
    "id": 46,
    "name": "Paras",
    "types": {
      "type1": "Bug",
      "type2": "Grass"
    },
    "description": "Burrows to suck tree roots. The mushrooms on its back grow by drawing nutrients from the bug host.",


  },
  {
    "id": 47,
    "name": "Parasect",
    "types": {
      "type1": "Bug",
      "type2": "Grass"
    },
    "description": "A host-parasite pair in which the parasite mushroom has taken over the host bug. Prefers damp places.",


  },
  {
    "id": 48,
    "name": "Venonat",
    "types": {
      "type1": "Bug",
      "type2": "Poison"
    },
    "description": "Lives in the shadows of tall trees where it eats insects. It is attracted by light at night.",


  },
  {
    "id": 49,
    "name": "Venomoth",
    "types": {
      "type1": "Bug",
      "type2": "Poison"
    },
    "description": "The dust-like scales covering its wings are color coded to indicate the kinds of poison it has.",


  },
  {
    "id": 50,
    "name": "Diglett",
    "types": {
      "type1": "Ground",
      "type2": ""
    },
    "description": "Lives about one yard underground where it feeds on plant roots. It sometimes appears above ground.",


  },
  {
    "id": 51,
    "name": "Dugtrio",
    "types": {
      "type1": "Ground",
      "type2": ""
    },
    "description": "A team of Diglett triplets. It triggers huge earthquakes by burrowing 60 miles underground.",


  },
  {
    "id": 52,
    "name": "Meowth",
    "types": {
      "type1": "Normal",
      "type2": ""
    },
    "description": "Adores circular objects. Wanders the streets on a nightly basis to look for dropped loose change.",


  },
  {
    "id": 53,
    "name": "Persian",
    "types": {
      "type1": "Normal",
      "type2": ""
    },
    "description": "Although its fur has many admirers, it is tough to raise as a pet because of its fickle meanness.",


  },
  {
    "id": 54,
    "name": "Psyduck",
    "types": {
      "type1": "Water",
      "type2": ""
    },
    "description": "While lulling its enemies with its vacant look, this wily Pokémon will use psychokinetic powers.",


  },
  {
    "id": 55,
    "name": "Golduck",
    "types": {
      "type1": "Water",
      "type2": ""
    },
    "description": "Often seen swimming elegantly by lake shores. It is often mistaken for the Japanese monster, Kappa.",


  },
  {
    "id": 56,
    "name": "Mankey",
    "types": {
      "type1": "Fighting",
      "type2": ""
    },
    "description": "Extremely quick to anger. It could be docile one moment then thrashing away the next instant.",


  },
  {
    "id": 57,
    "name": "Primeape",
    "types": {
      "type1": "Fighting",
      "type2": ""
    },
    "description": "Always furious and tenacious to boot. It will not abandon chasing its quarry until it is caught.",


  },
  {
    "id": 58,
    "name": "Growlithe",
    "types": {
      "type1": "Fire",
      "type2": ""
    },
    "description": "Very protective of its territory. It will bark and bite to repel intruders from its space.",


  },
  {
    "id": 59,
    "name": "Arcanine",
    "types": {
      "type1": "Fire",
      "type2": ""
    },
    "description": "A Pokémon that has been admired since the past for its beauty. It runs agilely as if on wings.",


  },
  {
    "id": 60,
    "name": "Poliwag",
    "types": {
      "type1": "Water",
      "type2": ""
    },
    "description": "Its newly grown legs prevent it from running. It appears to prefer swimming than trying to stand.",


  },
  {
    "id": 61,
    "name": "Poliwhirl",
    "types": {
      "type1": "Water",
      "type2": ""
    },
    "description": "Capable of living in or out of water. When out of water, it sweats to keep its body slimy.",


  },
  {
    "id": 62,
    "name": "Poliwrath",
    "types": {
      "type1": "Water",
      "type2": "Fighting"
    },
    "description": "An adept swimmer at both the front crawl and breast stroke. Easily overtakes the best human swimmers.",


  },
  {
    "id": 63,
    "name": "Abra",
    "types": {
      "type1": "Psychic",
      "type2": ""
    },
    "description": "Using its ability to read minds, it will identify impending danger and TELEPORT to safety.",


  },
  {
    "id": 64,
    "name": "Kadabra",
    "types": {
      "type1": "Psychic",
      "type2": ""
    },
    "description": "It emits special alpha waves from its body that induce headaches just by being close by.",


  },
  {
    "id": 65,
    "name": "Alakazam",
    "types": {
      "type1": "Psychic",
      "type2": ""
    },
    "description": "Its brain can outperform a supercomputer. Its intelligence quotient is said to be 5,000.",


  },
  {
    "id": 66,
    "name": "Machop",
    "types": {
      "type1": "Fighting",
      "type2": ""
    },
    "description": "Loves to build its muscles. It trains in all styles of martial arts to become even stronger.",


  },
  {
    "id": 67,
    "name": "Machoke",
    "types": {
      "type1": "Fighting",
      "type2": ""
    },
    "description": "Its muscular body is so powerful, it must wear a power save belt to be able to regulate its motions.",


  },
  {
    "id": 68,
    "name": "Machamp",
    "types": {
      "type1": "Fighting",
      "type2": ""
    },
    "description": "Using its heavy muscles, it throws powerful punches that can send the victim clear over the horizon.",


  },
  {
    "id": 69,
    "name": "Bellsprout",
    "types": {
      "type1": "Grass",
      "type2": "Poison"
    },
    "description": "A carnivorous Pokémon that traps and eats bugs. It uses its root feet to soak up needed moisture.",


  },
  {
    "id": 70,
    "name": "Weepinbell",
    "types": {
      "type1": "Grass",
      "type2": "Poison"
    },
    "description": "It spits out POISONPOWDER to immobilize the enemy and then finishes it with a spray of Acid.",


  },
  {
    "id": 71,
    "name": "Victreebel",
    "types": {
      "type1": "Grass",
      "type2": "Poison"
    },
    "description": "Said to live in huge colonies deep in jungles, although no one has ever returned from there.",


  },
  {
    "id": 72,
    "name": "Tentacool",
    "types": {
      "type1": "Water",
      "type2": "Poison"
    },
    "description": "Drifts in shallow seas. Anglers who hook them by accident are often punished by its stinging acid.",


  },
  {
    "id": 73,
    "name": "Tentacruel",
    "types": {
      "type1": "Water",
      "type2": "Poison"
    },
    "description": "The tentacles are normally kept short. On hunts, they are extended to ensnare and immobilize prey.",


  },
  {
    "id": 74,
    "name": "Geodude",
    "types": {
      "type1": "Rock",
      "type2": "Ground"
    },
    "description": "Found in fields and mountains. Mistaking them for boulders, people often step or trip on them.",


  },
  {
    "id": 75,
    "name": "Graveler",
    "types": {
      "type1": "Rock",
      "type2": "Ground"
    },
    "description": "Rolls down slopes to move. It rolls over any obstacle without slowing or changing its direction.",


  },
  {
    "id": 76,
    "name": "Golem",
    "types": {
      "type1": "Rock",
      "type2": "Ground"
    },
    "description": "Its boulder-like body is extremely hard. It can easily withstand dynamite blasts without damage.",


  },
  {
    "id": 77,
    "name": "Ponyta",
    "types": {
      "type1": "Fire",
      "type2": ""
    },
    "description": "Its hooves are 10 times harder than diamonds. It can trample anything completely flat in little time.",


  },
  {
    "id": 78,
    "name": "Rapidash",
    "types": {
      "type1": "Fire",
      "type2": ""
    },
    "description": "Very competitive, this POKéMON will chase anything that moves fast in the hopes of racing it.",


  },
  {
    "id": 79,
    "name": "Slowpoke",
    "types": {
      "type1": "Water",
      "type2": "Psychic"
    },
    "description": "Incredibly slow and dopey. It takes 5 seconds for it to feel pain when under attack.",


  },
  {
    "id": 80,
    "name": "Slowbro",
    "types": {
      "type1": "Water",
      "type2": "Psychic"
    },
    "description": "The Shellder that is latched onto Slowpoke's tail is said to feed on the host's left over scraps.",


  },
  {
    "id": 81,
    "name": "Magnemite",
    "types": {
      "type1": "Electric",
      "type2": ""
    },
    "description": "Uses anti-gravity to stay suspended. Appears without warning and uses THUNDER WAVE and similar moves.",


  },
  {
    "id": 82,
    "name": "Magneton",
    "types": {
      "type1": "Electric",
      "type2": ""
    },
    "description": "Formed by several Magnemites linked together. They frequently appear when sunspots flare up.",


  },
  {
    "id": 83,
    "name": "Farfetch'd",
    "types": {
      "type1": "Normal",
      "type2": "Flying"
    },
    "description": "The sprig of green onions it holds is its weapon. It is used much like a metal sword.",


  },
  {
    "id": 84,
    "name": "Doduo",
    "types": {
      "type1": "Normal",
      "type2": "Flying"
    },
    "description": "A bird that makes up for its poor flying with its fast foot speed. Leaves giant footprints.",


  },
  {
    "id": 85,
    "name": "Dodrio",
    "types": {
      "type1": "Normal",
      "type2": "Flying"
    },
    "description": "Uses its three brains to execute complex plans. While two heads sleep, one head stays awake.",


  },
  {
    "id": 86,
    "name": "Seel",
    "types": {
      "type1": "Water",
      "type2": ""
    },
    "description": "The protruding horn on its head is very hard. It is used for bashing through thick ice.",


  },
  {
    "id": 87,
    "name": "Seel",
    "types": {
      "type1": "Dewgong",
      "type2": "Ice"
    },
    "description": "Stores thermal energy in its body. Swims at a steady 8 knots even in intensely cold waters.",


  },
  {
    "id": 88,
    "name": "Grimer",
    "types": {
      "type1": "Poison",
      "type2": ""
    },
    "description": "Appears in filthy areas. Thrives by sucking up polluted sludge that is pumped out of factories.",


  },
  {
    "id": 89,
    "name": "Muk",
    "types": {
      "type1": "Poison",
      "type2": ""
    },
    "description": "Thickly covered with a filthy, vile sludge. It is so toxic, even its footprints contain poison.",


  },
  {
    "id": 90,
    "name": "Shellder",
    "types": {
      "type1": "Water",
      "type2": ""
    },
    "description": "Its hard shell repels any kind of attack. It is vulnerable only when its shell is open.",


  },
  {
    "id": 91,
    "name": "Cloyster",
    "types": {
      "type1": "Water",
      "type2": "Ice"
    },
    "description": "When attacked, it launches its horns in quick volleys. Its innards have never been seen.",


  },
  {
    "id": 92,
    "name": "Gastly",
    "types": {
      "type1": "Ghost",
      "type2": "Poison"
    },
    "description": "Almost invisible, this gaseous Pokémon cloaks the target and puts it to sleep without notice.",


  },
  {
    "id": 93,
    "name": "Haunter",
    "types": {
      "type1": "Ghost",
      "type2": "Poison"
    },
    "description": "Because of its ability to slip through block walls, it is said to be from another dimension.",


  },
  {
    "id": 94,
    "name": "Gengar",
    "types": {
      "type1": "Ghost",
      "type2": "Poison"
    },
    "description": "Under a full moon, this Pokémon likes to mimic the shadows of people and laugh at their fright.",


  },
  {
    "id": 95,
    "name": "Onix",
    "types": {
      "type1": "Rock",
      "type2": "Ground"
    },
    "description": "As it grows, the stone portions of its body harden to become similar to a diamond, but colored black.",


  },
  {
    "id": 96,
    "name": "Drowzee",
    "types": {
      "type1": "Psychic",
      "type2": ""
    },
    "description": "Puts enemies to sleep then eats their dreams. Occasionally gets sick from eating bad dreams.",


  },
  {
    "id": 97,
    "name": "Hypno",
    "types": {
      "type1": "Psychic",
      "type2": ""
    },
    "description": "When it locks eyes with an enemy, it will use a mix of PSI moves such as HYPNOSIS and CONFUSION.",


  },
  {
    "id": 98,
    "name": "Krabby",
    "types": {
      "type1": "Water",
      "type2": ""
    },
    "description": "Its pincers are not only powerful weapons, they are used for balance when walking sideways.",


  },
  {
    "id": 99,
    "name": "Kingler",
    "types": {
      "type1": "Water",
      "type2": ""
    },
    "description": "The large pincer has 10000 hp of crushing power. However, its huge size makes it unwieldy to use.",


  },
  {
    "id": 100,
    "name": "Voltorb",
    "types": {
      "type1": "Electric",
      "type2": ""
    },
    "description": "Usually found in power plants. Easily mistaken for a POKé BALL, they have zapped many people.",


  },
  {
    "id": 101,
    "name": "Electrode",
    "types": {
      "type1": "Electric",
      "type2": ""
    },
    "description": "It stores electric energy under very high pressure. It often explodes with little or no provocation.",


  },
  {
    "id": 102,
    "name": "Exeggcute",
    "types": {
      "type1": "Grass",
      "type2": "Psychic"
    },
    "description": "Often mistaken for eggs. When disturbed, they quickly gather and attack in swarms.",


  },
  {
    "id": 103,
    "name": "Exeggutor",
    "types": {
      "type1": "Grass",
      "type2": "Psychic"
    },
    "description": "Legend has it that on rare occasions, one of its heads will drop off and continue on as an Exeggcute.",


  },
  {
    "id": 104,
    "name": "Cubone",
    "types": {
      "type1": "Ground",
      "type2": ""
    },
    "description": "Because it never removes its skull helmet, no one has ever seen this POKéMON's real face.",


  },
  {
    "id": 105,
    "name": "Marowak",
    "types": {
      "type1": "Ground",
      "type2": ""
    },
    "description": "The bone it holds is its key weapon. It throws the bone skillfully like a boomerang to KO targets.",


  },
  {
    "id": 106,
    "name": "Hitmonlee",
    "types": {
      "type1": "Fighting",
      "type2": ""
    },
    "description": "When in a hurry, its legs lengthen progressively. It runs smoothly with extra long, loping strides.",


  },
  {
    "id": 107,
    "name": "Hitmonchan",
    "types": {
      "type1": "Fighting",
      "type2": ""
    },
    "description": "While apparently doing nothing, it fires punches in lightning fast volleys that are impossible to see.",


  },
  {
    "id": 108,
    "name": "Lickitung",
    "types": {
      "type1": "Normal",
      "type2": ""
    },
    "description": "Its tongue can be extended like a chameleon's. It leaves a tingling sensation when it licks enemies.",


  },
  {
    "id": 109,
    "name": "Koffing",
    "types": {
      "type1": "Poison",
      "type2": ""
    },
    "description": "Because it stores several kinds of toxic gases in its body, it is prone to exploding without warning.",


  },
  {
    "id": 110,
    "name": "Weezing",
    "types": {
      "type1": "Poison",
      "type2": ""
    },
    "description": "Where two kinds of poison gases meet, 2 Koffings can fuse into a Weezing over many years.",


  },
  {
    "id": 111,
    "name": "Rhyhorn",
    "types": {
      "type1": "Ground",
      "type2": "Rock"
    },
    "description": "Its massive bones are 1000 times harder than human bones. It can easily knock a trailer flying.",


  },
  {
    "id": 112,
    "name": "Rhydon",
    "types": {
      "type1": "Ground",
      "type2": "Rock"
    },
    "description": "Protected by an armor-like hide, it is capable of living in molten lava of 3,600 degrees.",


  },
  {
    "id": 113,
    "name": "Chansey",
    "types": {
      "type1": "Normal",
      "type2": ""
    },
    "description": "A rare and elusive POKéMON that is said to bring happiness to those who manage to get it.",


  },
  {
    "id": 114,
    "name": "Tangela",
    "types": {
      "type1": "Grass",
      "type2": ""
    },
    "description": "A rare and elusive POKéMON that is said to bring happiness to those who manage to get it.",


  },
  {
    "id": 115,
    "name": "Kangaskhan",
    "types": {
      "type1": "Normal",
      "type2": ""
    },
    "description": "The infant rarely ventures out of its mother's protective pouch until it is 3 years old.",


  },
  {
    "id": 116,
    "name": "Horsea",
    "types": {
      "type1": "Water",
      "type2": ""
    },
    "description": "Known to shoot down flying bugs with precision blasts of ink from the surface of the water.",


  },
  {
    "id": 117,
    "name": "Seadra",
    "types": {
      "type1": "Water",
      "type2": ""
    },
    "description": "Capable of swimming backwards by rapidly flapping its wing-like pectoral fins and stout tail.",


  },
  {
    "id": 118,
    "name": "Goldeen",
    "types": {
      "type1": "Water",
      "type2": ""
    },
    "description": "Its tail fin billows like an elegant ballroom dress, giving it the nickname of the Water Queen.",


  },
  {
    "id": 119,
    "name": "Seaking",
    "types": {
      "type1": "Water",
      "type2": ""
    },
    "description": "In the autumn spawning season, they can be seen swimming powerfully up rivers and creeks.",


  },
  {
    "id": 120,
    "name": "Staryu",
    "types": {
      "type1": "Water",
      "type2": ""
    },
    "description": "An enigmatic Pokémon that can effortlessly regenerate any appendage it loses in battle.",


  },
  {
    "id": 121,
    "name": "Starmie",
    "types": {
      "type1": "Water",
      "type2": "Psychic"
    },
    "description": "Its central core glows with the seven colors of the rainbow. Some people value the core as a gem.",


  },
  {
    "id": 122,
    "name": "Mr. Mime",
    "types": {
      "type1": "Psychic",
      "type2": ""
    },
    "description": "If interrupted while it is miming, it will slap around the offender with its broad hands.",


  },
  {
    "id": 123,
    "name": "Scyther",
    "types": {
      "type1": "Bug",
      "type2": "Flying"
    },
    "description": "With ninja-like agility and speed, it can create the illusion that there is more than one.",


  },
  {
    "id": 124,
    "name": "Jynx",
    "types": {
      "type1": "Ice",
      "type2": "Psychic"
    },
    "description": "It seductively wiggles its hips as it walks. It can cause people to dance in unison with it.",


  },
  {
    "id": 125,
    "name": "Electabuzz",
    "types": {
      "type1": "Electric",
      "type2": ""
    },
    "description": "Normally found near power plants, they can wander away and cause major blackouts in cities.",


  },
  {
    "id": 126,
    "name": "Magmar",
    "types": {
      "type1": "Fire",
      "type2": ""
    },
    "description": "Its body always burns with an orange glow that enables it to hide perfectly among flames.",


  },
  {
    "id": 127,
    "name": "Pinsir",
    "types": {
      "type1": "Bug",
      "type2": ""
    },
    "description": "If it fails to crush the victim in its pincers, it will swing it around and toss it hard.",


  },
  {
    "id": 128,
    "name": "Tauros",
    "types": {
      "type1": "Normal",
      "type2": ""
    },
    "description": "When it targets an enemy, it charges furiously while whipping its body with its long tails.",


  },
  {
    "id": 129,
    "name": "Magikarp",
    "types": {
      "type1": "Water",
      "type2": ""
    },
    "description": "In the distant past, it was somewhat stronger than the horribly weak descendants that exist today.",


  },
  {
    "id": 130,
    "name": "Gyarados",
    "types": {
      "type1": "Water",
      "type2": "Flying"
    },
    "description": "Rarely seen in the wild. Huge and vicious, it is capable of destroying entire cities in a rage.",


  },
  {
    "id": 131,
    "name": "Lapras",
    "types": {
      "type1": "Water",
      "type2": "Ice"
    },
    "description": "A Pokémon that has been overhunted almost to extinction. It can ferry people across the water.",


  },
  {
    "id": 132,
    "name": "Ditto",
    "types": {
      "type1": "Normal",
      "type2": ""
    },
    "description": "Capable of copying an enemy's genetic code to instantly transform itself into a duplicate of the enemy.",


  },
  {
    "id": 133,
    "name": "Eevee",
    "types": {
      "type1": "Normal",
      "type2": ""
    },
    "description": "Its genetic code is irregular. It may mutate if it is exposed to radiation from element stones.",


  },
  {
    "id": 134,
    "name": "Vaporeon",
    "types": {
      "type1": "Water",
      "type2": ""
    },
    "description": "Lives close to water. Its long tail is ridged with a fin which is often mistaken for a mermaid's.",


  },
  {
    "id": 135,
    "name": "Jolteon",
    "types": {
      "type1": "Electric",
      "type2": ""
    },
    "description": "It accumulates negative ions in the atmosphere to blast out 10000-volt lightning bolts.",


  },
  {
    "id": 136,
    "name": "Flareon",
    "types": {
      "type1": "Fire",
      "type2": ""
    },
    "description": "When storing thermal energy in its body, its temperature could soar to over 1600 degrees.",


  },
  {
    "id": 137,
    "name": "Porygon",
    "types": {
      "type1": "Normal",
      "type2": ""
    },
    "description": "A Pokémon that consists entirely of programming code. Capable of moving freely in cyberspace.",


  },
  {
    "id": 138,
    "name": "Omanyte",
    "types": {
      "type1": "Rock",
      "type2": "Water"
    },
    "description": "Although long extinct, in rare cases, it can be genetically resurrected from fossils.",


  },
  {
    "id": 139,
    "name": "Omastar",
    "types": {
      "type1": "Rock",
      "type2": "Water"
    },
    "description": "A prehistoric Pokémon that died out when its heavy shell made it impossible to catch prey.",


  },
  {
    "id": 140,
    "name": "Kabuto",
    "types": {
      "type1": "Rock",
      "type2": "Water"
    },
    "description": "A Pokémon that was resurrected from a fossil found in what was once the ocean floor eons ago.",


  },
  {
    "id": 141,
    "name": "Kabutops",
    "types": {
      "type1": "Rock",
      "type2": "Water"
    },
    "description": "Its sleek shape is perfect for swimming. It slashes prey with its claws and drains the body fluids.",


  },
  {
    "id": 142,
    "name": "Aerodactly",
    "types": {
      "type1": "Rock",
      "type2": "Flying"
    },
    "description": "A ferocious, prehistoric Pokémon that goes for the enemy's throat with its serrated saw-like fangs.",


  },
  {
    "id": 143,
    "name": "Snorlax",
    "types": {
      "type1": "Normal",
      "type2": ""
    },
    "description": "Very lazy. Just eats and sleeps. As its rotund bulk builds, it becomes steadily more slothful.",


  },
  {
    "id": 144,
    "name": "Articuno",
    "types": {
      "type1": "Ice",
      "type2": "Flying"
    },
    "description": "A legendary bird Pokémon that is said to appear to doomed people who are lost in icy mountains.",


  },
  {
    "id": 145,
    "name": "Zapdos",
    "types": {
      "type1": "Electric",
      "type2": "Flying"
    },
    "description": "A legendary bird Pokémon that is said to appear from clouds while dropping enormous lightning bolts.",


  },
  {
    "id": 146,
    "name": "Moltres",
    "types": {
      "type1": "Fire",
      "type2": "Flying"
    },
    "description": "Known as the legendary bird of fire. Every flap of its wings creates a dazzling flash of flames.",


  },
  {
    "id": 147,
    "name": "Dratini",
    "types": {
      "type1": "Dragon",
      "type2": ""
    },
    "description": "Long considered a mythical Pokémon until recently when a small colony was found living underwater.",


  },
  {
    "id": 148,
    "name": "Dragonair",
    "types": {
      "type1": "Dragon",
      "type2": ""
    },
    "description": "A mystical Pokémon that exudes a gentle aura. Has the ability to change climate conditions.",


  },
  {
    "id": 149,
    "name": "Dragonite",
    "types": {
      "type1": "Dragon",
      "type2": "Flying"
    },
    "description": "An extremely rarely seen marine Pokémon. Its intelligence is said to match that of humans.",


  },
  {
    "id": 150,
    "name": "Mewtwo",
    "types": {
      "type1": "Psychic",
      "type2": ""
    },
    "description": "It was created by a scientist after years of horrific gene splicing and DNA engineering experiments.",


  },
  {
    "id": 151,
    "name": "Mew",
    "types": {
      "type1": "Psychic",
      "type2": ""
    },
    "description": "So rare that it is still said to be a mirage by many experts. Only a few people have seen it worldwide.",


  }
]
